city_id,property_subtype_id,bizalmi_index,szorzo_over,szorzo_under
228,1,4,8.656,12.3225
228,2,1,15,14.41625
305,1,1,15,15
305,2,3,15,8.93525
339,2,4,15,6.12
349,1,1,15,15
350,1,1,15,15
350,2,1,15,15
357,1,1,15,15
439,1,2,13.6825,10.91875
513,1,1,14.525,14.355
537,1,3,8.86325,14.2025
537,2,5,10.22,8.96
568,1,1,15,13.71125
576,1,1,15,12.965
576,2,3,12.38725,12.5465
622,1,2,15,8.3925
622,2,5,8.34,11.745
757,1,3,12.0625,12.496
757,2,5,8.17,8.93
757,55,4,10.701,9.8905
757,99,3,10.6015,13.122
785,1,1,15,12.53
789,1,3,13.46,11.84175
789,2,4,10.4685,6.84
815,1,3,11.77,12.2355
815,2,5,7.425,12.26
829,1,2,14.82,12.125
829,2,3,11.34475,9.20375
866,1,3,12.39025,10.99625
866,2,4,8.885,12.76
866,55,3,11.945,9.4615
917,1,1,15,15
917,2,4,11.6885,10.409
917,99,1,15,15
996,1,3,12.3725,8.69375
1075,1,1,15,15
1075,2,4,13.095,7.063
1083,1,1,15,15
1086,1,3,11.30075,11.176
1086,2,3,11.6275,9.785
1086,55,4,11.7235,10.4195
1101,1,2,13.42375,11.495
1101,2,5,8.93,9.43
1101,99,2,13.21,15
1119,1,1,15,15
1131,1,3,9.8135,12.955
1131,2,4,6.618,11.6035
1131,55,5,8.585,9.0775
1145,1,4,9.8575,8.21275
1149,1,2,10.99,14.19
1149,2,5,6.845,9.51
1149,99,1,12.6775,13.75
1161,1,2,15,11.5925
1172,1,4,8.98,11.7605
1172,2,5,8.2625,11.805
1175,99,1,15,6
1269,1,1,15,15
1271,1,1,13.635,15
1271,2,5,10.525,7.49
1340,1,3,13.975,11.8475
1368,1,1,15,13.26
1368,2,3,13.1975,9.345
1381,1,2,14.335,11.07
1381,2,4,14.342,8.161
1407,1,1,15,11.38
1407,2,3,13.59325,7.66375
1411,1,3,13.0045,11.8185
1411,2,5,10.0575,9.855
1411,99,1,15,15
1457,1,1,15,15
1457,2,3,12.432,10.6185
1511,1,1,15,11.945
1511,2,1,15,15
1512,1,1,15,13.10625
1569,1,1,15,15
1569,2,1,15,13.6625
1576,1,2,13.895,9.865
1576,2,5,8.59,9.34
1673,1,1,12.9775,13.3
1693,1,1,15,12.635
1816,1,1,14.97875,14.40125
1897,1,1,14.18,15
1897,2,3,12.01625,10.306
1918,1,3,15,11.13
1918,2,5,9.025,9.345
1918,99,1,15,15
1983,1,3,15,5.7
2019,1,1,15,14.53
2019,2,2,15,9.5375
2035,1,3,14.15375,6.575
2126,2,1,15,15
2146,1,3,11.955,10.048
2146,2,4,11.625,8.605
2146,55,4,11.72575,8.263
2146,99,1,15,15
2213,1,1,15,11.4
2213,2,5,12.1975,5.6075
2215,1,1,15,12.72875
2215,2,3,12.043,10.752
2230,1,1,15,15
2230,2,4,10.076,8.1895
2356,1,3,15,5.93
2373,1,2,15,12.4925
2373,2,4,9.66,9.16175
2373,99,1,15,15
2507,1,1,15,14.41
2507,2,1,15,13.73
2533,1,1,15,15
2533,2,2,7.22,15
2533,99,1,15,15
2578,1,3,12.9005,9.86775
2578,2,5,8.86,9.185
2578,55,5,7.76,8.54
2578,99,1,15,15
2644,1,3,13.3465,11.36
2644,2,4,8.749,9.292
2644,99,1,14.845,14.435
2650,1,3,15,9.7115
2650,2,5,9.3425,10.035
2670,1,3,9.593,14.931
2670,2,5,10.81,6.0525
2670,55,3,5.958,13.152
2706,1,3,10.98875,10.543
2706,2,5,4.73,10.77
2728,1,2,13.44,12.01
2728,2,3,11.34,9.655
2728,55,3,14.32525,10
2728,99,1,15,15
2729,1,3,14.187,8.234
2729,2,4,9.93625,6.663
2729,55,5,9.9375,5.75
2729,99,1,15,15
2756,1,4,6.53425,11.69025
2756,2,5,8.72,10.02
2763,1,3,11.755,13.3275
2763,2,5,7.64,8.7475
2763,55,4,9.4005,8.578
2763,99,1,15,15
2807,1,4,8.82025,9.9915
2849,1,3,14.83575,8.4135
2871,1,3,9.99,13.3735
2872,1,4,10.826,9.87975
2872,2,5,10.83,8.8925
2872,99,4,9.9915,3.332
2958,1,3,10.444,12.63625
2958,2,4,11.7385,9.74925
3034,1,4,10.175,8.1025
3093,1,4,14.333,8.797
3107,1,3,8.3845,12.78
3107,2,4,8.15,10.0815
3136,1,4,10.519,12.845
3136,2,4,12.7035,9.034
3136,55,4,8.907,12.69275
3169,1,2,14.785,10.695
3169,2,4,7.55925,15
3211,1,1,14.6875,12.84
3211,2,3,11.585,8.81475
3211,55,3,14.464,8.675
3244,99,1,13.64375,15
3303,1,3,12.432,8.85625
3303,2,1,15,15
3303,99,3,15,8.27875
3322,2,1,15,12.89875
