Date,Timeperiod,egyedi_ugynok_db,uj_hird_db,egyedi_ugynok_hasznalta_db,prediktalt_unique_hird
2021-10-08,rolling07day,1603,3424,24,23
2021-10-09,rolling07day,1609,3475,23,21
2021-10-10,rolling07day,1620,3522,22,21
2021-10-11,rolling07day,1635,3541,25,26
2021-10-12,rolling07day,1629,3618,27,28
2021-10-13,rolling07day,1628,3617,29,26
2021-10-14,rolling07day,1632,3698,33,29
2021-10-15,rolling07day,1657,3763,35,27
2021-10-16,rolling07day,1644,3757,33,27
2021-10-17,rolling07day,1641,3713,35,29
2021-10-18,rolling07day,1605,3745,35,24
2021-10-19,rolling07day,1609,3703,37,26
2021-10-20,rolling07day,1604,3724,40,29
2021-10-21,rolling07day,1580,3664,45,34
2021-10-22,rolling07day,1558,3578,60,48
2021-10-23,rolling07day,1563,3578,69,56
2021-10-24,rolling07day,1565,3591,78,63
2021-10-25,rolling07day,1560,3565,104,97
2021-10-26,rolling07day,1565,3668,125,134
2021-10-27,rolling07day,1560,3562,143,147
2021-10-28,rolling07day,1539,3557,146,148
2021-10-29,rolling07day,1540,3553,147,146
2021-10-30,rolling07day,1533,3525,150,143
2021-10-31,rolling07day,1510,3474,146,142
2021-11-01,rolling07day,1389,3029,127,114
2021-11-02,rolling07day,1385,2955,121,100
2021-11-03,rolling07day,1388,3003,117,106
2021-11-04,rolling07day,1402,3009,121,119
2021-11-05,rolling07day,1386,3027,119,138
2021-11-06,rolling07day,1373,3053,120,140
2021-11-07,rolling07day,1393,3116,123,144
2021-11-08,rolling07day,1538,3562,137,162
2021-11-09,rolling07day,1567,3592,135,161
2021-11-10,rolling07day,1558,3574,137,165
2021-11-11,rolling07day,1529,3464,136,167
2021-11-12,rolling07day,1525,3442,138,158
2021-11-13,rolling07day,1525,3457,139,159
2021-11-14,rolling07day,1518,3460,136,152
2021-11-15,rolling07day,1534,3424,136,160
2021-11-16,rolling07day,1509,3314,140,161
2021-11-17,rolling07day,1482,3296,126,151
2021-11-18,rolling07day,1533,3401,125,142
2021-11-19,rolling07day,1522,3450,120,140
2021-11-20,rolling07day,1513,3426,123,139
2021-11-21,rolling07day,1504,3468,124,143
2021-11-22,rolling07day,1498,3538,123,130
2021-11-23,rolling07day,1504,3607,126,130
2021-11-24,rolling07day,1507,3641,134,131
2021-11-25,rolling07day,1499,3517,124,130
2021-11-26,rolling07day,1474,3459,126,132
2021-11-27,rolling07day,1482,3427,121,129
2021-11-28,rolling07day,1485,3388,119,127
2021-11-29,rolling07day,1463,3305,124,133
2021-11-30,rolling07day,1431,3302,123,115
2021-12-01,rolling07day,1420,3288,118,119
2021-12-02,rolling07day,1443,3438,115,115
2021-12-03,rolling07day,1449,3423,107,106
2021-12-04,rolling07day,1437,3424,110,106
2021-12-05,rolling07day,1417,3394,112,104
2021-12-06,rolling07day,1443,3297,114,107
2021-12-07,rolling07day,1555,9566,111,105
2021-12-08,rolling07day,1521,9532,107,96
2021-12-09,rolling07day,1460,9381,101,96
2021-12-10,rolling07day,1485,9390,108,105
2021-12-11,rolling07day,1484,9401,111,107
2021-12-12,rolling07day,1477,9387,110,103
2021-12-13,rolling07day,1456,9432,95,91
2021-12-14,rolling07day,1325,2954,99,99
2021-12-15,rolling07day,1321,2852,98,90
2021-12-16,rolling07day,1289,2723,102,96
2021-12-17,rolling07day,1240,2642,99,92
2021-12-18,rolling07day,1206,2579,97,91
2021-12-19,rolling07day,1199,2547,92,84
2021-12-20,rolling07day,1122,2358,92,75
2021-12-21,rolling07day,1021,2178,84,59
2021-12-22,rolling07day,905,1928,72,56
2021-12-23,rolling07day,795,1790,59,43
2021-12-24,rolling07day,651,1427,52,35
2021-12-25,rolling07day,611,1362,48,30
2021-12-26,rolling07day,582,1297,48,30
2021-12-27,rolling07day,493,1111,43,35
2021-12-28,rolling07day,449,1039,39,32
2021-12-29,rolling07day,441,1071,41,29
2021-12-30,rolling07day,433,949,46,32
2021-12-31,rolling07day,449,980,48,35
2022-01-01,rolling07day,464,1001,50,39
2022-01-02,rolling07day,493,1104,53,44
2022-01-03,rolling07day,668,1601,65,50
2022-01-04,rolling07day,811,1966,79,69
2022-01-05,rolling07day,954,2311,89,79
2022-01-06,rolling07day,1109,2885,96,81
2022-01-07,rolling07day,1245,3318,103,85
2022-01-08,rolling07day,1300,3476,110,92
2022-01-09,rolling07day,1320,3520,112,88
2022-01-10,rolling07day,1389,3459,116,93
2022-01-11,rolling07day,1436,3581,120,94
2022-01-12,rolling07day,1509,3596,127,94
2022-01-13,rolling07day,1510,3468,129,98
2022-01-14,rolling07day,1529,3539,135,109
2022-01-15,rolling07day,1531,3540,140,116
2022-01-16,rolling07day,1553,3550,134,117
2022-01-17,rolling07day,1541,3642,132,112
2022-01-18,rolling07day,1544,3682,121,108
2022-01-19,rolling07day,1544,3713,116,111
2022-01-20,rolling07day,1545,3786,117,104
2022-01-21,rolling07day,1536,3773,114,101
2022-01-22,rolling07day,1533,3766,115,92
2022-01-23,rolling07day,1513,3806,122,90
2022-01-24,rolling07day,1518,3694,117,89
2022-01-25,rolling07day,1548,3691,118,91
2022-01-26,rolling07day,1561,3744,120,93
2022-01-27,rolling07day,1546,3843,117,104
2022-01-28,rolling07day,1579,3870,118,103
2022-01-29,rolling07day,1578,3848,114,100
2022-01-30,rolling07day,1585,3821,114,107
2022-01-31,rolling07day,1585,3925,117,110
2022-02-01,rolling07day,1605,4041,120,111
2022-02-02,rolling07day,1614,4085,120,111
2022-02-03,rolling07day,1618,3987,128,110
2022-02-04,rolling07day,1626,4031,128,106
2022-02-05,rolling07day,1631,4024,134,111
2022-02-06,rolling07day,1635,4033,131,103
2022-02-07,rolling07day,1684,3992,137,115
2022-02-08,rolling07day,1651,3865,140,121
2022-02-09,rolling07day,1655,3799,140,112
2022-02-10,rolling07day,1657,3813,138,111
2022-02-11,rolling07day,1626,3839,135,116
2022-02-12,rolling07day,1636,3900,131,114
2022-02-13,rolling07day,1641,3926,127,114
2022-02-14,rolling07day,1624,3898,122,99
2022-02-15,rolling07day,1612,3840,110,86
2022-02-16,rolling07day,1616,3791,119,98
2022-02-17,rolling07day,1610,3806,117,108
2022-02-18,rolling07day,1625,3766,120,104
2022-02-19,rolling07day,1628,3760,123,110
2022-02-20,rolling07day,1628,3705,133,120
2022-02-21,rolling07day,1643,3797,140,127
2022-02-22,rolling07day,1649,3887,148,130
2022-02-23,rolling07day,1626,3961,140,128
2022-02-24,rolling07day,1604,3860,141,112
2022-02-25,rolling07day,1579,3758,137,108
2022-02-26,rolling07day,1564,3700,135,101
2022-02-27,rolling07day,1572,3704,129,92
2022-02-28,rolling07day,1547,3580,115,86
2022-03-01,rolling07day,1507,3496,101,77
2022-03-02,rolling07day,1518,3555,105,70
2022-03-03,rolling07day,1580,3750,103,67
2022-03-04,rolling07day,1563,3827,107,68
2022-03-05,rolling07day,1582,3887,114,73
2022-03-06,rolling07day,1519,3682,110,74
