ds,becsles_id,feedback_bool
2022-02-17,8dc48480,FALSE
2022-02-17,5d5333e0,FALSE
2022-03-01,5eb4e977,FALSE
2022-03-10,81b48c29,FALSE
2022-03-10,6eaeee0d,FALSE
2022-03-10,9341e183,FALSE
2022-03-10,35b47f62,FALSE
2022-01-27,proba,TRUE
2022-01-31,proba,TRUE
2022-02-15,proba,TRUE
2022-02-15,proba,TRUE
2022-02-17,5d3fa297,TRUE
2022-02-17,474a93a3,TRUE
2022-02-17,3467636e,TRUE
2022-02-17,951febc7,TRUE
2022-02-17,bba91b3f,TRUE
2022-02-17,c48f0c91,TRUE
2022-02-17,613d1015,TRUE
2022-03-01,00319fa5,TRUE
2022-03-10,1e9a6e34,TRUE
2022-03-23,3785ce06,TRUE
2022-03-23,2c0a5d08,TRUE
2022-03-23,2d3f1c7d,TRUE
2022-03-23,1ffddefd,TRUE
2022-03-23,2ed7f489,TRUE
2022-03-23,02aab179,TRUE
2022-03-24,6742de9e,TRUE
2022-03-24,58d36409,TRUE
2022-03-24,f72014b2,TRUE
2022-03-24,15a90c88,TRUE
2022-03-24,a4811aea,TRUE
2022-03-25,c444f786,TRUE
2022-03-28,36e01bf2,FALSE
2022-03-28,3862c938,FALSE
2022-03-29,70f5fa6f,FALSE
2022-03-29,93a0a5a2,FALSE
2022-03-29,5221558c,FALSE
2022-03-29,f6add9fd,FALSE
2022-03-29,c59c676b,FALSE
2022-03-29,662c52fa,FALSE
2022-03-29,a0b06a06,FALSE
2022-03-30,d119afa2,FALSE
2022-03-30,400ec4f0,FALSE
2022-03-30,fc78661e,FALSE
2022-03-30,e88b04a8,FALSE
2022-03-31,ed1c45a9,FALSE
2022-03-31,44f983f7,FALSE
2022-03-31,c707f3a4,FALSE
2022-03-31,62dce088,FALSE
2022-03-31,e7967a2f,FALSE
2022-03-31,526c88e5,FALSE
2022-03-31,8b078621,FALSE
2022-03-28,cf67df6a,TRUE
2022-03-28,5b11d214,TRUE
2022-03-28,4bc17118,TRUE
2022-03-28,03bf5de9,TRUE
2022-03-28,7a191272,TRUE
2022-03-29,57048f6c,TRUE
2022-03-29,38470e97,TRUE
2022-03-29,6beb2146,TRUE
2022-03-29,f04d3718,TRUE
2022-03-29,6106bc52,TRUE
2022-03-29,ed4f80a3,TRUE
2022-03-29,b4e1e0e3,TRUE
2022-03-29,4ca175d1,TRUE
2022-03-29,858c57c7,TRUE
2022-03-29,b7f6651e,TRUE
2022-03-29,008e9c3a,TRUE
2022-03-30,b00af39b,TRUE
2022-03-30,a02dd5a0,TRUE
2022-03-30,ef0185a8,TRUE
2022-03-30,ac080271,TRUE
2022-03-30,b277aa6f,TRUE
2022-03-30,441dafb3,TRUE
2022-03-30,83d1ef5c,TRUE
2022-03-30,83080166,TRUE
2022-03-30,5b709ba3,TRUE
2022-03-30,24a516db,TRUE
2022-03-30,e8ae6862,TRUE
2022-03-30,39102029,TRUE
2022-03-30,ab6f68f1,TRUE
2022-03-30,03d61a42,TRUE
2022-03-30,2eb00890,TRUE
2022-03-31,e892ee41,TRUE
2022-03-31,9cf4a9d1,TRUE
2022-03-30,3e8733f5,TRUE
2022-03-31,0d410872,TRUE
2022-03-31,c3c43f81,TRUE
2022-03-31,94d85a1c,TRUE
2022-03-31,ae8195c6,TRUE
2022-03-31,e523bd4c,TRUE
2022-03-31,8ecae8bf,TRUE
2022-03-31,2179ff09,TRUE
2022-03-31,6db2017a,TRUE
2022-03-31,db1a064e,TRUE
2022-04-01,3b64a58d,FALSE
2022-04-01,51eb8fb0,FALSE
2022-04-01,fd2b44a1,FALSE
2022-04-01,24a1df9f,FALSE
2022-04-02,5ed80a2a,FALSE
2022-04-04,9149ce2c,FALSE
2022-04-04,ef707c66,FALSE
2022-04-04,8f4df2bc,FALSE
2022-04-04,c7a6984b,FALSE
2022-04-04,aacbefde,FALSE
2022-04-04,d346ba75,FALSE
2022-04-04,b15af94a,FALSE
2022-04-01,60682d8d,TRUE
2022-04-01,64cabada,TRUE
2022-04-01,1c3a272f,TRUE
2022-04-01,a5dab542,TRUE
2022-04-01,4129f6b0,TRUE
2022-04-01,5416ca77,TRUE
2022-04-01,fe941b10,TRUE
2022-03-31,7f46c39f,TRUE
2022-03-31,f5b759a9,TRUE
2022-04-01,985ccfd8,TRUE
2022-04-01,2a74ca04,TRUE
2022-04-01,80eed9d2,TRUE
2022-04-01,c112702a,TRUE
2022-04-01,9f5ba550,TRUE
2022-04-01,bbb292d9,TRUE
2022-04-02,d95fa59a,TRUE
2022-04-02,f5097015,TRUE
2022-04-02,ccfd9cd4,TRUE
2022-04-02,73721232,TRUE
2022-04-04,114f743d,TRUE
2022-04-04,2aeccf9c,TRUE
2022-04-04,dfd99250,TRUE
2022-04-04,43a6cb1e,TRUE
2022-04-04,4fdec6ff,TRUE
2022-04-04,a12c3bf2,TRUE
2022-04-04,20c021d2,TRUE
2022-04-04,1c2d9625,TRUE
2022-04-04,04182fea,TRUE
2022-04-04,ae4fc0e5,TRUE
2022-04-04,7b45cd82,TRUE
2022-04-04,231ca0c3,TRUE
2022-04-04,e4e35b61,TRUE
2022-04-04,cf56397b,TRUE
2022-04-04,1a015e38,TRUE
2022-04-04,d09c3c9c,TRUE
2022-04-04,55693b28,TRUE
2022-04-03,83106e53,TRUE
2022-04-03,0eeb01a1,TRUE
2022-04-04,a4a78465,TRUE
2022-04-04,6c2c1eee,FALSE
2022-04-04,c79d0179,TRUE
2022-04-05,5df28bad,TRUE
2022-04-05,21145a0d,TRUE
2022-04-05,0190c165,TRUE
2022-04-05,b8a63ade,TRUE
2022-04-05,265cf8a7,TRUE
2022-04-05,5b12afa7,TRUE
2022-04-05,3bf9b59d,TRUE
2022-04-05,a488c007,TRUE
2022-04-05,c0c0ab0f,TRUE
2022-04-05,94119407,FALSE
2022-04-05,bd211760,FALSE
2022-04-05,5b83dbbb,TRUE
2022-04-05,65f2de58,TRUE
2022-04-05,4bfae3bc,TRUE
2022-04-05,a9f4b63f,TRUE
2022-04-05,2227f4c1,TRUE
2022-04-05,1c49da46,TRUE
2022-04-05,cb6e092c,TRUE
2022-04-05,2a13525c,TRUE
2022-04-05,a1a7a9a8,TRUE
2022-04-07,5e970e25,TRUE
2022-04-07,ffc4aef9,TRUE
2022-04-06,c51b4f2e,FALSE
2022-04-06,74da98f7,FALSE
2022-04-06,b57442d0,FALSE
2022-04-06,4b3798f5,FALSE
2022-04-06,86203722,FALSE
2022-04-05,ee1a62e6,TRUE
2022-04-06,9fb442f8,TRUE
2022-04-06,364c456a,TRUE
2022-04-06,43b90144,TRUE
2022-04-06,f45c76b4,TRUE
2022-04-06,c4e07a15,FALSE
2022-04-06,4ef2ed43,TRUE
2022-04-06,b16b16a7,TRUE
2022-04-06,d82dbf27,TRUE
2022-04-06,5f277751,TRUE
2022-04-06,daa2f966,TRUE
2022-04-06,f5dc476d,TRUE
2022-04-06,d72a58aa,TRUE
2022-04-07,5e1e73d2,TRUE
2022-04-07,bc6c1e09,TRUE
